module github.com/kubeshop/testkube

go 1.22.3

require (
	github.com/99designs/gqlgen v0.17.27
	github.com/Masterminds/semver v1.5.0
	github.com/adhocore/gronx v1.6.3
	github.com/bmatcuk/doublestar/v4 v4.6.1
	github.com/cdevents/sdk-go v0.3.0
	github.com/cli/cli/v2 v2.20.2
	github.com/cloudevents/sdk-go/v2 v2.15.2
	github.com/coreos/go-oidc v2.2.1+incompatible
	github.com/creasty/defaults v1.7.0
	github.com/denisbrodbeck/machineid v1.0.1
	github.com/dustin/go-humanize v1.0.1
	github.com/dustinkirkland/golang-petname v0.0.0-20191129215211-8e5a1ed0cff0
	github.com/fasthttp/websocket v1.5.0
	github.com/fluxcd/pkg/apis/event v0.2.0
	github.com/gabriel-vasile/mimetype v1.4.1
	github.com/go-task/slim-sprig v0.0.0-20230315185526-52ccab3ef572
	github.com/gofiber/adaptor/v2 v2.1.29
	github.com/gofiber/fiber/v2 v2.52.1
	github.com/gofiber/websocket/v2 v2.1.1
	github.com/golang/mock v1.6.0
	github.com/google/go-cmp v0.6.0
	github.com/google/uuid v1.5.0
	github.com/gookit/color v1.5.4
	github.com/gorilla/websocket v1.5.0
	github.com/h2non/filetype v1.1.3
	github.com/itchyny/gojq v0.12.14
	github.com/joshdk/go-junit v1.0.0
	github.com/kballard/go-shellquote v0.0.0-20180428030007-95032a82bc51
	github.com/kelseyhightower/envconfig v1.4.0
	github.com/kubepug/kubepug v1.7.1
	github.com/kubeshop/testkube-operator v1.15.2-beta1.0.20240607075650-f76a84665689
	github.com/minio/minio-go/v7 v7.0.47
	github.com/montanaflynn/stats v0.6.6
	github.com/moogar0880/problems v0.1.1
	github.com/nats-io/nats-server/v2 v2.10.16
	github.com/nats-io/nats.go v1.35.0
	github.com/oklog/run v1.1.0
	github.com/olekukonko/tablewriter v0.0.6-0.20230925090304-df64c4bbad77
	github.com/onsi/ginkgo/v2 v2.15.0
	github.com/onsi/gomega v1.31.0
	github.com/otiai10/copy v1.11.0
	github.com/pkg/errors v0.9.1
	github.com/prometheus/client_golang v1.18.0
	github.com/pterm/pterm v0.12.79
	github.com/robfig/cron v1.2.0
	github.com/segmentio/analytics-go/v3 v3.2.1
	github.com/shirou/gopsutil/v3 v3.24.3
	github.com/skratchdot/open-golang v0.0.0-20200116055534-eef842397966
	github.com/slack-go/slack v0.12.2
	github.com/spf13/afero v1.10.0
	github.com/spf13/cobra v1.7.0
	github.com/stretchr/testify v1.9.0
	github.com/valyala/fasthttp v1.51.0
	github.com/vektah/gqlparser/v2 v2.5.2-0.20230422221642-25e09f9d292d
	go.mongodb.org/mongo-driver v1.11.3
	go.uber.org/zap v1.26.0
	golang.org/x/exp v0.0.0-20230905200255-921286631fa9
	golang.org/x/oauth2 v0.13.0
	golang.org/x/sync v0.5.0
	golang.org/x/text v0.15.0
	google.golang.org/appengine v1.6.8
	google.golang.org/grpc v1.60.0
	google.golang.org/protobuf v1.31.0
	gopkg.in/yaml.v2 v2.4.0
	gopkg.in/yaml.v3 v3.0.1
	k8s.io/api v0.28.4
	k8s.io/apimachinery v0.28.4
	k8s.io/client-go v0.28.4
	sigs.k8s.io/controller-runtime v0.16.3
	sigs.k8s.io/kustomize/kyaml v0.15.0
)

require (
	atomicgo.dev/cursor v0.2.0 // indirect
	atomicgo.dev/keyboard v0.2.9 // indirect
	atomicgo.dev/schedule v0.1.0 // indirect
	github.com/AlecAivazis/survey/v2 v2.3.6 // indirect
	github.com/agnivade/levenshtein v1.1.1 // indirect
	github.com/alecthomas/chroma v0.10.0 // indirect
	github.com/andybalholm/brotli v1.0.5 // indirect
	github.com/aymerick/douceur v0.2.0 // indirect
	github.com/beorn7/perks v1.0.1 // indirect
	github.com/bmizerany/assert v0.0.0-20160611221934-b7ed37b82869 // indirect
	github.com/briandowns/spinner v1.18.1 // indirect
	github.com/cespare/xxhash/v2 v2.2.0 // indirect
	github.com/charmbracelet/glamour v0.5.1-0.20220727184942-e70ff2d969da // indirect
	github.com/cli/browser v1.1.0 // indirect
	github.com/cli/go-gh v0.1.3-0.20221102170023-e3ec45fb1d1b // indirect
	github.com/cli/safeexec v1.0.0 // indirect
	github.com/cli/shurcooL-graphql v0.0.2 // indirect
	github.com/containerd/console v1.0.3 // indirect
	github.com/cpuguy83/go-md2man/v2 v2.0.2 // indirect
	github.com/davecgh/go-spew v1.1.1 // indirect
	github.com/dlclark/regexp2 v1.4.0 // indirect
	github.com/emicklei/go-restful/v3 v3.11.0 // indirect
	github.com/evanphx/json-patch v5.6.0+incompatible // indirect
	github.com/evanphx/json-patch/v5 v5.7.0 // indirect
	github.com/fatih/color v1.15.0 // indirect
	github.com/fsnotify/fsnotify v1.6.0 // indirect
	github.com/go-errors/errors v1.5.1 // indirect
	github.com/go-logr/logr v1.3.0 // indirect
	github.com/go-ole/go-ole v1.2.6 // indirect
	github.com/go-openapi/jsonpointer v0.20.0 // indirect
	github.com/go-openapi/jsonreference v0.20.2 // indirect
	github.com/go-openapi/swag v0.22.4 // indirect
	github.com/go-playground/locales v0.14.0 // indirect
	github.com/go-playground/universal-translator v0.18.0 // indirect
	github.com/go-playground/validator/v10 v10.11.1 // indirect
	github.com/gogo/protobuf v1.3.2 // indirect
	github.com/golang/groupcache v0.0.0-20210331224755-41bb18bfe9da // indirect
	github.com/golang/protobuf v1.5.3 // indirect
	github.com/golang/snappy v0.0.1 // indirect
	github.com/google/gnostic-models v0.6.8 // indirect
	github.com/google/gofuzz v1.2.0 // indirect
	github.com/google/pprof v0.0.0-20210720184732-4bb14d4b1be1 // indirect
	github.com/google/shlex v0.0.0-20191202100458-e7afc7fbc510 // indirect
	github.com/gorilla/css v1.0.0 // indirect
	github.com/hashicorp/golang-lru/v2 v2.0.1 // indirect
	github.com/henvic/httpretty v0.0.6 // indirect
	github.com/imdario/mergo v0.3.16 // indirect
	github.com/inconshreveable/mousetrap v1.1.0 // indirect
	github.com/itchyny/timefmt-go v0.1.5 // indirect
	github.com/josharian/intern v1.0.0 // indirect
	github.com/json-iterator/go v1.1.12 // indirect
	github.com/klauspost/compress v1.17.8 // indirect
	github.com/klauspost/cpuid/v2 v2.2.3 // indirect
	github.com/leodido/go-urn v1.2.1 // indirect
	github.com/lithammer/fuzzysearch v1.1.8 // indirect
	github.com/lucasb-eyer/go-colorful v1.2.0 // indirect
	github.com/lufia/plan9stats v0.0.0-20211012122336-39d0f177ccd0 // indirect
	github.com/mailru/easyjson v0.7.7 // indirect
	github.com/mattn/go-colorable v0.1.13 // indirect
	github.com/mattn/go-isatty v0.0.20 // indirect
	github.com/mattn/go-runewidth v0.0.15 // indirect
	github.com/matttproud/golang_protobuf_extensions/v2 v2.0.0 // indirect
	github.com/mgutz/ansi v0.0.0-20200706080929-d51e80ef957d // indirect
	github.com/microcosm-cc/bluemonday v1.0.20 // indirect
	github.com/minio/highwayhash v1.0.2 // indirect
	github.com/minio/md5-simd v1.1.2 // indirect
	github.com/minio/sha256-simd v1.0.0 // indirect
	github.com/mitchellh/mapstructure v1.5.0 // indirect
	github.com/moby/spdystream v0.2.0 // indirect
	github.com/modern-go/concurrent v0.0.0-20180306012644-bacd9c7ef1dd // indirect
	github.com/modern-go/reflect2 v1.0.2 // indirect
	github.com/muesli/reflow v0.3.0 // indirect
	github.com/muesli/termenv v0.12.0 // indirect
	github.com/munnerz/goautoneg v0.0.0-20191010083416-a7dc8b61c822 // indirect
	github.com/nats-io/jwt/v2 v2.5.7 // indirect
	github.com/nats-io/nkeys v0.4.7 // indirect
	github.com/nats-io/nuid v1.0.1 // indirect
	github.com/package-url/packageurl-go v0.1.0 // indirect
	github.com/pmezard/go-difflib v1.0.0 // indirect
	github.com/power-devops/perfstat v0.0.0-20210106213030-5aafc221ea8c // indirect
	github.com/pquerna/cachecontrol v0.2.0 // indirect
	github.com/prometheus/client_model v0.5.0 // indirect
	github.com/prometheus/common v0.45.0 // indirect
	github.com/prometheus/procfs v0.12.0 // indirect
	github.com/rivo/uniseg v0.4.4 // indirect
	github.com/rs/xid v1.4.0 // indirect
	github.com/russross/blackfriday/v2 v2.1.0 // indirect
	github.com/santhosh-tekuri/jsonschema/v5 v5.0.0 // indirect
	github.com/savsgio/gotils v0.0.0-20211223103454-d0aaa54c5899 // indirect
	github.com/segmentio/backo-go v1.0.0 // indirect
	github.com/shoenig/go-m1cpu v0.1.6 // indirect
	github.com/shurcooL/githubv4 v0.0.0-20220520033151-0b4e3294ff00 // indirect
	github.com/shurcooL/graphql v0.0.0-20220606043923-3cf50f8a0a29 // indirect
	github.com/sirupsen/logrus v1.9.3 // indirect
	github.com/spf13/pflag v1.0.5 // indirect
	github.com/thlib/go-timezone-local v0.0.0-20210907160436-ef149e42d28e // indirect
	github.com/tklauser/go-sysconf v0.3.12 // indirect
	github.com/tklauser/numcpus v0.6.1 // indirect
	github.com/urfave/cli/v2 v2.24.4 // indirect
	github.com/valyala/bytebufferpool v1.0.0 // indirect
	github.com/valyala/tcplisten v1.0.0 // indirect
	github.com/xdg-go/pbkdf2 v1.0.0 // indirect
	github.com/xdg-go/scram v1.1.1 // indirect
	github.com/xdg-go/stringprep v1.0.3 // indirect
	github.com/xo/terminfo v0.0.0-20220910002029-abceb7e1c41e // indirect
	github.com/xrash/smetrics v0.0.0-20201216005158-039620a65673 // indirect
	github.com/youmark/pkcs8 v0.0.0-20181117223130-1be2e3e5546d // indirect
	github.com/yuin/goldmark v1.4.13 // indirect
	github.com/yuin/goldmark-emoji v1.0.1 // indirect
	github.com/yusufpapurcu/wmi v1.2.4 // indirect
	go.uber.org/multierr v1.11.0 // indirect
	golang.org/x/crypto v0.23.0 // indirect
	golang.org/x/mod v0.14.0 // indirect
	golang.org/x/net v0.21.0 // indirect
	golang.org/x/sys v0.20.0 // indirect
	golang.org/x/term v0.20.0 // indirect
	golang.org/x/time v0.5.0 // indirect
	golang.org/x/tools v0.16.1 // indirect
	gomodules.xyz/jsonpatch/v2 v2.4.0 // indirect
	google.golang.org/genproto/googleapis/rpc v0.0.0-20231002182017-d307bd883b97 // indirect
	gopkg.in/inf.v0 v0.9.1 // indirect
	gopkg.in/ini.v1 v1.66.6 // indirect
	gopkg.in/square/go-jose.v2 v2.6.0 // indirect
	k8s.io/apiextensions-apiserver v0.28.3 // indirect
	k8s.io/component-base v0.28.3 // indirect
	k8s.io/klog/v2 v2.100.1 // indirect
	k8s.io/kube-openapi v0.0.0-20230918164632-68afd615200d // indirect
	k8s.io/utils v0.0.0-20230726121419-3b25d923346b // indirect
	sigs.k8s.io/json v0.0.0-20221116044647-bc3834ca7abd // indirect
	sigs.k8s.io/structured-merge-diff/v4 v4.3.0 // indirect
	sigs.k8s.io/yaml v1.3.0 // indirect
)
